…
```
Model residuals are computed by `residuals()`, while `augment()` returns the actual outcome (`.outcome`) with predictions in the training data and out-of-fold predictions in resamples (`.fitted`) together with class assignment probabilities and the explanatory variables. By providing the `residuals()` and `augment()` functions with a test data set passed to the optional `newdata` argument, test set residuals and predictions can be calculated as well:

```r
> residuals(my_models$regression, newdata = my_boston$test)

$train
# A tibble: 338 × 8
   .observation .outcome .fitted .resid .std.resid .sq.std.resid .candidate_missfit .expect.norm
          <int>    <dbl>   <dbl>  <dbl>      <dbl>         <dbl> <chr>                     <dbl>
 1          246     50      34.3 -15.7       -7.66         58.6  yes                       -2.97
 2            4     27.1    20.6  -6.52      -3.18         10.1  yes                       -2.62
 3          244     50      43.7  -6.25      -3.05          9.31 yes                       -2.44
 4          111     36.2    30.1  -6.11      -2.98          8.88 yes                       -2.31
 5          259     23.2    17.2  -5.96      -2.91          8.47 yes                       -2.22
 6          277     17.9    13.3  -4.57      -2.23          4.97 yes                       -2.14
 7          171     50      45.4  -4.56      -2.23          4.95 yes                       -2.07
 8          131     23.7    19.2  -4.49      -2.19          4.79 yes                       -2.01
 9          122     50      45.5  -4.46      -2.17          4.73 yes                       -1.96
10           58     28.4    24.9  -3.45      -1.69          2.84 no                        -1.91
# … with 328 more rows
# ℹ Use `print(n = ...)` to see more rows

$cv
# A tibble: 1,690 × 9
   .observation .outcome .fitted .resample  .resid .std.resid .sq.std.resid .candidate_missfit .expect.norm
          <int>    <dbl>   <dbl> <chr>       <dbl>      <dbl>         <dbl> <chr>                     <dbl>
 1          246       50    23.5 Fold5.Rep3  -26.5      -7.52          56.6 yes                       -3.44
 2          246       50    24.9 Fold1.Rep5  -25.1      -7.12          50.7 yes                       -3.13
 3          246       50    25.5 Fold5.Rep4  -24.5      -6.94          48.2 yes                       -2.97
 4          246       50    25.7 Fold4.Rep2  -24.3      -6.88          47.4 yes                       -2.87
 5          246       50    27.1 Fold4.Rep1  -22.9      -6.49          42.2 yes                       -2.79
 6          244       50    31.2 Fold2.Rep4  -18.8      -5.34          28.5 yes                       -2.72
 7          244       50    32.6 Fold3.Rep1  -17.4      -4.92          24.2 yes                       -2.67
 8          245       50    34.1 Fold2.Rep4  -15.9      -4.49          20.2 yes                       -2.62
 9          245       50    34.6 Fold3.Rep1  -15.4      -4.36          19.0 yes                       -2.57
10          245       50    36.8 Fold5.Rep3  -13.2      -3.73          13.9 yes                       -2.54
# … with 1,680 more rows
# ℹ Use `print(n = ...)` to see more rows

$test
# A tibble: 168 × 8
   .observation .outcome .fitted .resid .std.resid .sq.std.resid .candidate_missfit .expect.norm
          <int>    <dbl>   <dbl>  <dbl>      <dbl>         <dbl> <chr>                     <dbl>
 1          127     50      30.4 -19.6       -5.13         26.4  yes                       -2.75
 2           74     37      30.2  -6.77      -1.75          3.06 no                        -2.37
 3           86     30.1    23.4  -6.72      -1.73          3.01 no                        -2.17
 4           87     50      43.7  -6.28      -1.62          2.62 no                        -2.04
 5           73     32      26.4  -5.55      -1.43          2.03 no                        -1.93
 6          160     19.1    14.3  -4.82      -1.23          1.52 no                        -1.84
 7           77     34.9    30.1  -4.77      -1.22          1.49 no                        -1.77
 8          100     29.1    24.4  -4.70      -1.20          1.44 no                        -1.70
 9           76     34.6    29.9  -4.66      -1.19          1.42 no                        -1.64
10           81     50      45.6  -4.43      -1.13          1.28 no                        -1.58
# … with 158 more rows
# ℹ Use `print(n = ...)` to see more rows

```
```r
> augment(my_models$multi_class)

$train
# A tibble: 119 × 19
   .observ…¹ .outc…² .fitted Barbera Barolo Grign…³ alcohol malic…⁴     ash ash.a…⁵ magne…⁶ tot..…⁷ flavo…⁸ non.f…⁹ proanth col..i…˟
       <int> <fct>   <fct>     <dbl>  <dbl>   <dbl>   <dbl>   <dbl>   <dbl>   <dbl>   <dbl>   <dbl>   <dbl>   <dbl>   <dbl>    <dbl>
 1         1 Barolo  Barolo  1.40e-7   1.00 4.03e-6   0.255 -0.500  -0.822   -2.49   0.0291   0.571   0.738  -0.821  -0.537 -0.290  
 2         2 Barolo  Barolo  5.79e-6   1.00 1.95e-6   0.206  0.0180  1.10    -0.275  0.0996   0.810   1.22   -0.500   2.14   0.269  
 3         3 Barolo  Barolo  3.83e-6   1.00 6.18e-6   1.70  -0.348   0.487   -0.814  0.946    2.49    1.47   -0.981   1.04   1.18   
 4         4 Barolo  Barolo  6.27e-7   1.00 1.97e-6   1.73  -0.420   0.305   -1.47  -0.253    0.332   0.497  -0.500   0.688  0.0840 
 5         5 Barolo  Barolo  1.37e-6   1.00 1.16e-6   1.32  -0.170   0.886   -0.575  1.51     0.491   0.487  -0.420  -0.590 -0.00207
 6         6 Barolo  Barolo  4.92e-7   1.00 8.38e-6   2.27  -0.625  -0.713   -1.65  -0.183    0.810   0.958  -0.580   0.688  0.0625 
 7         7 Barolo  Barolo  9.03e-7   1.00 7.42e-5   1.07  -0.884  -0.350   -1.05  -0.112    1.10    1.13   -1.14    0.460  0.931  
 8         8 Barolo  Barolo  7.73e-6   1.00 5.34e-5   1.37  -0.161  -0.241   -0.455  0.382    1.05    1.30   -1.14    1.39   0.299  
 9         9 Barolo  Barolo  5.56e-7   1.00 2.52e-6   0.935 -0.545   0.159   -1.05  -0.747    0.491   0.738  -0.580   0.390  0.235  
10        10 Barolo  Barolo  8.32e-6   1.00 2.83e-4   2.17  -0.545   0.0867  -2.43  -0.606    1.29    1.67    0.543   2.14   0.149  
# … with 109 more rows, 3 more variables: col..hue <dbl>, OD.ratio <dbl>, proline <dbl>, and abbreviated variable names
#   ¹​.observation, ²​.outcome, ³​Grignolino, ⁴​malic.acid, ⁵​ash.alkalinity, ⁶​magnesium, ⁷​tot..phenols, ⁸​flavonoids,
#   ⁹​non.flav..phenols, ˟​col..int.
# ℹ Use `print(n = ...)` to see more rows, and `colnames()` to see all variable names

$cv
# A tibble: 595 × 20
   .observa…¹ .outc…² .fitted .resa…³  Barbera Barolo Grign…⁴ alcohol malic…⁵    ash ash.a…⁶ magne…⁷ tot..…⁸ flavo…⁹ non.f…˟ proanth
        <int> <fct>   <fct>   <chr>      <dbl>  <dbl>   <dbl>   <dbl>   <dbl>  <dbl>   <dbl>   <dbl>   <dbl>   <dbl>   <dbl>   <dbl>
 1          1 Barolo  Barolo  Fold5.… 4.01e- 7   1.00 1.77e-5   0.255 -0.500  -0.822  -2.49   0.0291   0.571   0.738  -0.821  -0.537
 2          1 Barolo  Barolo  Fold3.… 2.07e- 7   1.00 1.42e-6   0.255 -0.500  -0.822  -2.49   0.0291   0.571   0.738  -0.821  -0.537
 3          1 Barolo  Barolo  Fold5.… 7.50e-10   1.00 1.86e-7   0.255 -0.500  -0.822  -2.49   0.0291   0.571   0.738  -0.821  -0.537
 4          1 Barolo  Barolo  Fold4.… 1.01e- 7   1.00 3.10e-5   0.255 -0.500  -0.822  -2.49   0.0291   0.571   0.738  -0.821  -0.537
 5          1 Barolo  Barolo  Fold3.… 2.77e- 9   1.00 1.05e-6   0.255 -0.500  -0.822  -2.49   0.0291   0.571   0.738  -0.821  -0.537
 6          2 Barolo  Barolo  Fold1.… 2.27e- 6   1.00 1.12e-6   0.206  0.0180  1.10   -0.275  0.0996   0.810   1.22   -0.500   2.14 
 7          2 Barolo  Barolo  Fold1.… 1.25e- 6   1.00 1.64e-6   0.206  0.0180  1.10   -0.275  0.0996   0.810   1.22   -0.500   2.14 
 8          2 Barolo  Barolo  Fold2.… 5.31e- 7   1.00 3.59e-7   0.206  0.0180  1.10   -0.275  0.0996   0.810   1.22   -0.500   2.14 
 9          2 Barolo  Barolo  Fold3.… 2.19e- 5   1.00 8.17e-6   0.206  0.0180  1.10   -0.275  0.0996   0.810   1.22   -0.500   2.14 
10          2 Barolo  Barolo  Fold5.… 2.74e- 6   1.00 2.02e-6   0.206  0.0180  1.10   -0.275  0.0996   0.810   1.22   -0.500   2.14 
# … with 585 more rows, 4 more variables: col..int. <dbl>, col..hue <dbl>, OD.ratio <dbl>, proline <dbl>, and abbreviated variable
#   names ¹​.observation, ²​.outcome, ³​.resample, ⁴​Grignolino, ⁵​malic.acid, ⁶​ash.alkalinity, ⁷​magnesium, ⁸​tot..phenols, ⁹​flavonoids,
#   ˟​non.flav..phenols
# ℹ Use `print(n = ...)` to see more rows, and `colnames()` to see all variable names
…
```

```r
> components(my_models$binary, what = 'square_dist')

$train
# A tibble: 456 × 4
   .observation .outcome  .fitted   square_dist
          <int> <fct>     <fct>           <dbl>
 1            1 benign    benign    0.00000120 
 2            2 benign    benign    0.0519     
 3            3 benign    benign    0.0759     
 4            4 benign    benign    0.00000704 
 5            5 benign    benign    0.0000145  
 6            6 benign    benign    0.000000831
 7            7 malignant malignant 0.0232     
 8            8 benign    benign    0.000129   
 9            9 malignant malignant 0.000000131
10           10 benign    benign    0.00000120 
# … with 446 more rows
# ℹ Use `print(n = ...)` to see more rows

$cv
# A tibble: 2,280 × 5
   .observation .resample  .outcome .fitted   square_dist
          <int> <chr>      <fct>    <fct>           <dbl>
 1            1 Fold1.Rep3 benign   benign    0.000000516
 2            1 Fold4.Rep1 benign   benign    0.000000222
 3            1 Fold3.Rep2 benign   benign    0.000000922
 4            1 Fold5.Rep4 benign   benign    0.000000351
 5            1 Fold2.Rep5 benign   benign    0.000000645
 6            2 Fold1.Rep4 benign   malignant 0.980      
 7            2 Fold4.Rep1 benign   malignant 0.981      
 8            2 Fold5.Rep2 benign   malignant 0.946      
 9            2 Fold3.Rep3 benign   malignant 0.981      
10            2 Fold5.Rep5 benign   malignant 0.984      
# … with 2,270 more rows
# ℹ Use `print(n = ...)` to see more rows
```
…
